<?xml version="1.0" standalone="no"?>
<!DOCTYPE svg PUBLIC "-//W3C//DTD SVG 20010904//EN"
 "http://www.w3.org/TR/2001/REC-SVG-20010904/DTD/svg10.dtd">
<svg version="1.0" xmlns="http://www.w3.org/2000/svg"
 width="512.000000pt" height="512.000000pt" viewBox="0 0 512.000000 512.000000"
 preserveAspectRatio="xMidYMid meet">

<g transform="translate(0.000000,512.000000) scale(0.100000,-0.100000)"
fill="#000000" stroke="none">
<path d="M2300 4843 c-226 -43 -390 -127 -547 -276 -140 -134 -232 -291 -278
-471 l-23 -91 -139 -5 c-132 -5 -144 -8 -206 -38 -83 -41 -157 -120 -187 -200
-20 -52 -29 -178 -116 -1557 -52 -825 -93 -1536 -91 -1580 6 -143 79 -255 206
-318 l66 -32 1575 0 1575 0 57 27 c79 37 142 98 180 175 26 53 32 80 35 146 2
45 -39 757 -91 1582 -87 1379 -96 1505 -116 1557 -30 80 -104 159 -187 200
-62 30 -74 33 -206 38 l-139 5 -23 91 c-44 174 -123 311 -259 452 -126 130
-285 224 -461 272 -71 20 -108 23 -340 25 -143 2 -271 1 -285 -2z m590 -348
c172 -59 318 -188 395 -350 24 -49 46 -102 49 -117 l6 -28 -780 0 -780 0 6 28
c3 15 25 68 49 117 68 142 195 267 332 326 119 52 173 59 413 56 219 -3 227
-3 310 -32z m998 -833 c16 -16 27 -170 112 -1529 79 -1262 92 -1514 81 -1527
-12 -15 -153 -16 -1521 -16 -1369 0 -1509 1 -1521 16 -11 13 2 263 80 1522 71
1135 97 1513 108 1530 l13 22 1315 0 c1247 0 1316 -1 1333 -18z"/>
<path d="M2480 2908 c-18 -13 -43 -36 -54 -51 -20 -27 -21 -43 -24 -298 l-3
-269 -263 0 c-256 0 -264 -1 -296 -22 -48 -33 -72 -70 -77 -120 -7 -58 23
-118 74 -149 37 -23 45 -24 301 -27 l262 -3 0 -255 c0 -234 2 -258 20 -293 57
-113 223 -113 280 0 18 35 20 59 20 293 l0 255 263 3 c255 3 263 4 300 27 51
31 81 91 74 149 -5 50 -29 87 -77 120 -32 21 -40 22 -296 22 l-263 0 -3 269
c-3 255 -4 271 -24 298 -35 48 -82 73 -134 73 -32 0 -57 -7 -80 -22z"/>
</g>
</svg>
